{
    "code": "data",
    "category_code": "prabayar",
    "name": "Paket Data",
    "state": "enabled",
    "state_desc": "",
    "order": 1,
    "image": "https://d1mlw9qkqfqc3o.cloudfront.net/public/android/icon/webp/ic_recharge_finance_emoney_color.webp",
    "operators": [
        {
            "code": "telkomsel_data",
            "type_code": "data",
            "prefixes": "0811,0812,0813,0851,0852,0853,0821,0822,0823",
            "name": "Telkomsel",
            "state": "enabled",
            "state_desc": "string",
            "image": "https://content.payfazz.com/object/a8ae4694cae34a2ad71048be213fa232c83433a7f4f89823eca9981c252ac23b",
            "order": 0,
            "plans": [
                {
                    "code": "DATA_TLKM5",
                    "operator_code": "telkomsel_data",
                    "type_code": "data",
                    "name": "Telkomsel 28MB",
                    "description": "28MB (3G) (7 hari)",
                    "sell_price": 5750,
                    "amount": 0,
                    "state": "enabled",
                    "state_desc": "",
                    "order": 0,
                    "fee": 0,
                    "image": "",
                    "inquiry_required": false,
                    "inquiry_uri": "https://secure.payfazz.com/order/inquiry/plan_10",
                    "inquiry_params": [],
                    "payment_methods": [],
                    "disclaimer": "Harga tertera dapat berubah sewaktu-waktu sesuai kebijakan operator. Cek kembali harga akhir saat pembayaran."
                },
                {
                    "code": "DATA_TLKM10",
                    "operator_code": "telkomsel_data",
                    "type_code": "data",
                    "name": "Telkomsel 80MB",
                    "description": "80MB (3G) (7 hari)",
                    "sell_price": 10200,
                    "amount": 0,
                    "state": "enabled",
                    "state_desc": "",
                    "order": 1,
                    "fee": 0,
                    "image": "",
                    "inquiry_required": false,
                    "inquiry_uri": "https://secure.payfazz.com/order/inquiry/plan_10",
                    "inquiry_params": [],
                    "payment_methods": [],
                    "disclaimer": "Harga tertera dapat berubah sewaktu-waktu sesuai kebijakan operator. Cek kembali harga akhir saat pembayaran."
                },
                {
                    "code": "DATA_TLKM20",
                    "operator_code": "telkomsel_data",
                    "type_code": "data",
                    "name": "Telkomsel 300MB",
                    "description": "300MB (3G) (7 hari)",
                    "sell_price": 19800,
                    "amount": 0,
                    "state": "enabled",
                    "state_desc": "",
                    "order": 2,
                    "fee": 0,
                    "image": "",
                    "inquiry_required": false,
                    "inquiry_uri": "https://secure.payfazz.com/order/inquiry/plan_10",
                    "inquiry_params": [],
                    "payment_methods": [],
                    "disclaimer": "Harga tertera dapat berubah sewaktu-waktu sesuai kebijakan operator. Cek kembali harga akhir saat pembayaran."
                },
                {
                    "code": "DATA_TLKM25",
                    "operator_code": "telkomsel_data",
                    "type_code": "data",
                    "name": "Telkomsel Data 25.000",
                    "description": "400MB - 800MB + 1GB bonus VideoMax (sesuai zona) (30 hari)",
                    "sell_price": 24800,
                    "amount": 0,
                    "state": "enabled",
                    "state_desc": "",
                    "order": 3,
                    "fee": 0,
                    "image": "",
                    "inquiry_required": false,
                    "inquiry_uri": "https://secure.payfazz.com/order/inquiry/plan_10",
                    "inquiry_params": [],
                    "payment_methods": [],
                    "disclaimer": "Harga tertera dapat berubah sewaktu-waktu sesuai kebijakan operator. Cek kembali harga akhir saat pembayaran."
                },
                {
                    "code": "DATA_TLKM50",
                    "operator_code": "telkomsel_data",
                    "type_code": "data",
                    "name": "Telkomsel Data 50.000",
                    "description": "800MB s/d 1.5GB + 1GB bonus tengah malam + 3GB bonus VideoMax (sesuai zona)",
                    "sell_price": 49950,
                    "amount": 0,
                    "state": "disabled",
                    "state_desc": "",
                    "order": 4,
                    "fee": 0,
                    "image": "",
                    "inquiry_required": false,
                    "inquiry_uri": "https://secure.payfazz.com/order/inquiry/plan_10",
                    "inquiry_params": [],
                    "payment_methods": [],
                    "disclaimer": "Harga tertera dapat berubah sewaktu-waktu sesuai kebijakan operator. Cek kembali harga akhir saat pembayaran."
                },
                {
                    "code": "DATA_TLKM100",
                    "operator_code": "telkomsel_data",
                    "type_code": "data",
                    "name": "Telkomsel Data 100.000",
                    "description": "2.5GB s/d 4.5GB + 3GB bonus tengah malam + 5GB bonus VideoMax (sesuai zona)",
                    "sell_price": 49950,
                    "amount": 0,
                    "state": "disabled",
                    "state_desc": "",
                    "order": 5,
                    "fee": 0,
                    "image": "",
                    "inquiry_required": false,
                    "inquiry_uri": "https://secure.payfazz.com/order/inquiry/plan_10",
                    "inquiry_params": [],
                    "payment_methods": [],
                    "disclaimer": "Harga tertera dapat berubah sewaktu-waktu sesuai kebijakan operator. Cek kembali harga akhir saat pembayaran."
                }
            ],
            "disclaimer": ""
        },
        {
            "code": "indosat_data",
            "type_code": "data",
            "prefixes": "0814,0815,0816,0855,0856,0857,0858",
            "name": "Indosat",
            "state": "enabled",
            "state_desc": "string",
            "image": "https://content.payfazz.com/object/a8ae4694cae34a2ad71048be213fa232c83433a7f4f89823eca9981c252ac23b",
            "order": 1,
            "plans": [
                {
                    "code": "DATA_INDST1",
                    "operator_code": "indosat_data",
                    "type_code": "data",
                    "name": "Freedom Combo M",
                    "description": "Total Kuota 12 GB, 2GB (3G) + 3GB (4G)+  5GB (Malam 3G/4G) + 2GB (Aplikasi 24 jam 3G/4G) + Telepon Unlimited ke Indosat (30 hari)",
                    "sell_price": 64300,
                    "amount": 0,
                    "state": "enabled",
                    "state_desc": "",
                    "order": 0,
                    "fee": 0,
                    "image": "",
                    "inquiry_required": false,
                    "inquiry_uri": "https://secure.payfazz.com/order/inquiry/plan_10",
                    "inquiry_params": [],
                    "payment_methods": [],
                    "disclaimer": "Harga tertera dapat berubah sewaktu-waktu sesuai kebijakan operator. Cek kembali harga akhir saat pembayaran."
                },
                {
                    "code": "DATA_INDST3",
                    "operator_code": "indosat_data",
                    "type_code": "data",
                    "name": "Freedom Combo L",
                    "description": "Total Kuota 26 GB, 4GB (3G) + 8GB (4G)+  10GB (Malam 3G/4G) + 4GB (Aplikasi 24 jam 3G/4G) + Telepon Unlimited ke Indosat (30 hari)",
                    "sell_price": 99000,
                    "amount": 0,
                    "state": "enabled",
                    "state_desc": "",
                    "order": 1,
                    "fee": 0,
                    "image": "",
                    "inquiry_required": false,
                    "inquiry_uri": "https://secure.payfazz.com/order/inquiry/plan_10",
                    "inquiry_params": [],
                    "payment_methods": [],
                    "disclaimer": "Harga tertera dapat berubah sewaktu-waktu sesuai kebijakan operator. Cek kembali harga akhir saat pembayaran."
                },
                {
                    "code": "DATA_INDST5",
                    "operator_code": "indosat_data",
                    "type_code": "data",
                    "name": "Freedom Combo XL",
                    "description": "Total Kuota 41 GB, 8GB (3G) + 10GB (4G)+  15GB (Malam 3G/4G) + 6GB (Aplikasi 24 jam 3G/4G) + Telepon Unlimited ke Indosat (30 hari)",
                    "sell_price": 130250,
                    "amount": 0,
                    "state": "enabled",
                    "state_desc": "",
                    "order": 2,
                    "fee": 0,
                    "image": "",
                    "inquiry_required": false,
                    "inquiry_uri": "https://secure.payfazz.com/order/inquiry/plan_10",
                    "inquiry_params": [],
                    "payment_methods": [],
                    "disclaimer": "Harga tertera dapat berubah sewaktu-waktu sesuai kebijakan operator. Cek kembali harga akhir saat pembayaran."
                },
                {
                    "code": "DATA_INDST10",
                    "operator_code": "indosat",
                    "type_code": "data",
                    "name": "Freedom Combo XXL",
                    "description": "Total Kuota 65 GB, 12GB (3G) + 25GB (4G)+  20GB (Malam 3G/4G) + 8GB (Aplikasi 24 jam 3G/4G) + Telepon Unlimited ke Indosat (30 hari)",
                    "sell_price": 174750,
                    "amount": 0,
                    "state": "enabled",
                    "state_desc": "",
                    "order": 3,
                    "fee": 0,
                    "image": "",
                    "inquiry_required": false,
                    "inquiry_uri": "https://secure.payfazz.com/order/inquiry/plan_10",
                    "inquiry_params": [],
                    "payment_methods": [],
                    "disclaimer": "Harga tertera dapat berubah sewaktu-waktu sesuai kebijakan operator. Cek kembali harga akhir saat pembayaran."
                },
                {
                    "code": "DATA_INDST_EXTRA2GB",
                    "operator_code": "indosat",
                    "type_code": "data",
                    "name": "Indosat Extra Kuota 2GB",
                    "description": "",
                    "sell_price": 40000,
                    "amount": 0,
                    "state": "disabled",
                    "state_desc": "",
                    "order": 4,
                    "fee": 0,
                    "image": "",
                    "inquiry_required": false,
                    "inquiry_uri": "https://secure.payfazz.com/order/inquiry/plan_10",
                    "inquiry_params": [],
                    "payment_methods": [],
                    "disclaimer": "Harga tertera dapat berubah sewaktu-waktu sesuai kebijakan operator. Cek kembali harga akhir saat pembayaran."
                },
                {
                    "code": "DATA_INDST_EXTRA4GB",
                    "operator_code": "indosat",
                    "type_code": "data",
                    "name": "Indosat Extra Kuota 4GB",
                    "description": "",
                    "sell_price": 40000,
                    "amount": 0,
                    "state": "disabled",
                    "state_desc": "",
                    "order": 5,
                    "fee": 0,
                    "image": "",
                    "inquiry_required": false,
                    "inquiry_uri": "https://secure.payfazz.com/order/inquiry/plan_10",
                    "inquiry_params": [],
                    "payment_methods": [],
                    "disclaimer": "Harga tertera dapat berubah sewaktu-waktu sesuai kebijakan operator. Cek kembali harga akhir saat pembayaran."
                }
            ],
            "disclaimer": ""
        }
    ],
    "disclaimer": ""
}