{
    "code": "mobile",
    "category_code": "prabayar",
    "name": "Pulsa Seluler",
    "state": "enabled",
    "state_desc": "",
    "order": 0,
    "image": "https://d1mlw9qkqfqc3o.cloudfront.net/public/android/icon/webp/ic_recharge_finance_emoney_color.webp",
    "operators": [
        {
            "code": "telkomsel",
            "type_code": "mobile",
            "prefixes": "0811,0812,0813,0851,0852,0853,0821,0822,0823",
            "name": "Telkomsel",
            "state": "enabled",
            "state_desc": "string",
            "image": "https://content.payfazz.com/object/a8ae4694cae34a2ad71048be213fa232c83433a7f4f89823eca9981c252ac23b",
            "order": 0,
            "plans": [
                {
                    "code": "TLKM5",
                    "operator_code": "telkomsel",
                    "type_code": "mobile",
                    "name": "Telkomsel 5.000",
                    "description": "",
                    "sell_price": 5700,
                    "amount": 0,
                    "state": "enabled",
                    "state_desc": "",
                    "order": 0,
                    "fee": 0,
                    "image": "",
                    "inquiry_required": false,
                    "inquiry_uri": "https://secure.payfazz.com/order/inquiry/plan_10",
                    "inquiry_params": [],
                    "payment_methods": [],
                    "disclaimer": "Harga tertera dapat berubah sewaktu-waktu sesuai kebijakan operator. Cek kembali harga akhir saat pembayaran."
                },
                {
                    "code": "TLKM10",
                    "operator_code": "telkomsel",
                    "type_code": "mobile",
                    "name": "Telkomsel 10.000",
                    "description": "",
                    "sell_price": 10350,
                    "amount": 0,
                    "state": "enabled",
                    "state_desc": "",
                    "order": 1,
                    "fee": 0,
                    "image": "",
                    "inquiry_required": false,
                    "inquiry_uri": "https://secure.payfazz.com/order/inquiry/plan_10",
                    "inquiry_params": [],
                    "payment_methods": [],
                    "disclaimer": "Harga tertera dapat berubah sewaktu-waktu sesuai kebijakan operator. Cek kembali harga akhir saat pembayaran."
                },
                {
                    "code": "TLKM20",
                    "operator_code": "telkomsel",
                    "type_code": "mobile",
                    "name": "Telkomsel 20.000",
                    "description": "",
                    "sell_price": 20100,
                    "amount": 0,
                    "state": "enabled",
                    "state_desc": "",
                    "order": 2,
                    "fee": 0,
                    "image": "",
                    "inquiry_required": false,
                    "inquiry_uri": "https://secure.payfazz.com/order/inquiry/plan_10",
                    "inquiry_params": [],
                    "payment_methods": [],
                    "disclaimer": "Harga tertera dapat berubah sewaktu-waktu sesuai kebijakan operator. Cek kembali harga akhir saat pembayaran."
                },
                {
                    "code": "TLKM25",
                    "operator_code": "telkomsel",
                    "type_code": "mobile",
                    "name": "Telkomsel 25.000",
                    "description": "",
                    "sell_price": 24650,
                    "amount": 0,
                    "state": "enabled",
                    "state_desc": "",
                    "order": 3,
                    "fee": 0,
                    "image": "",
                    "inquiry_required": false,
                    "inquiry_uri": "https://secure.payfazz.com/order/inquiry/plan_10",
                    "inquiry_params": [],
                    "payment_methods": [],
                    "disclaimer": "Harga tertera dapat berubah sewaktu-waktu sesuai kebijakan operator. Cek kembali harga akhir saat pembayaran."
                },
                {
                    "code": "TLKM50",
                    "operator_code": "telkomsel",
                    "type_code": "mobile",
                    "name": "Telkomsel 50.000",
                    "description": "",
                    "sell_price": 49750,
                    "amount": 0,
                    "state": "disabled",
                    "state_desc": "",
                    "order": 4,
                    "fee": 0,
                    "image": "",
                    "inquiry_required": false,
                    "inquiry_uri": "https://secure.payfazz.com/order/inquiry/plan_10",
                    "inquiry_params": [],
                    "payment_methods": [],
                    "disclaimer": "Harga tertera dapat berubah sewaktu-waktu sesuai kebijakan operator. Cek kembali harga akhir saat pembayaran."
                },
                {
                    "code": "TLKM100",
                    "operator_code": "telkomsel",
                    "type_code": "mobile",
                    "name": "Telkomsel 100.000",
                    "description": "",
                    "sell_price": 97250,
                    "amount": 0,
                    "state": "disabled",
                    "state_desc": "",
                    "order": 5,
                    "fee": 0,
                    "image": "",
                    "inquiry_required": false,
                    "inquiry_uri": "https://secure.payfazz.com/order/inquiry/plan_10",
                    "inquiry_params": [],
                    "payment_methods": [],
                    "disclaimer": "Harga tertera dapat berubah sewaktu-waktu sesuai kebijakan operator. Cek kembali harga akhir saat pembayaran."
                }
            ],
            "disclaimer": ""
        },
        {
            "code": "indosat",
            "type_code": "mobile",
            "prefixes": "0814,0815,0816,0855,0856,0857,0858",
            "name": "Indosat",
            "state": "enabled",
            "state_desc": "string",
            "image": "https://content.payfazz.com/object/a8ae4694cae34a2ad71048be213fa232c83433a7f4f89823eca9981c252ac23b",
            "order": 1,
            "plans": [
            {
                "code": "INDST5",
                "operator_code": "indosat",
                "type_code": "mobile",
                "name": "Indosat 5.000",
                "description": "",
                "sell_price": 5700,
                "amount": 0,
                "state": "enabled",
                "state_desc": "",
                "order": 0,
                "fee": 0,
                "image": "",
                "inquiry_required": false,
                "inquiry_uri": "https://secure.payfazz.com/order/inquiry/plan_10",
                "inquiry_params": [],
                "payment_methods": [],
                "disclaimer": "Harga tertera dapat berubah sewaktu-waktu sesuai kebijakan operator. Cek kembali harga akhir saat pembayaran."
                },
                {
                "code": "INDST10",
                "operator_code": "indosat",
                "type_code": "mobile",
                "name": "Indosat 10.000",
                "description": "",
                "sell_price": 10350,
                "amount": 0,
                "state": "enabled",
                "state_desc": "",
                "order": 1,
                "fee": 0,
                "image": "",
                "inquiry_required": false,
                "inquiry_uri": "https://secure.payfazz.com/order/inquiry/plan_10",
                "inquiry_params": [],
                "payment_methods": [],
                "disclaimer": "Harga tertera dapat berubah sewaktu-waktu sesuai kebijakan operator. Cek kembali harga akhir saat pembayaran."
                },
                {
                "code": "INDST12",
                "operator_code": "indosat",
                "type_code": "mobile",
                "name": "Indosat 12.000",
                "description": "",
                "sell_price": 20100,
                "amount": 0,
                "state": "enabled",
                "state_desc": "",
                "order": 2,
                "fee": 0,
                "image": "",
                "inquiry_required": false,
                "inquiry_uri": "https://secure.payfazz.com/order/inquiry/plan_10",
                "inquiry_params": [],
                "payment_methods": [],
                "disclaimer": "Harga tertera dapat berubah sewaktu-waktu sesuai kebijakan operator. Cek kembali harga akhir saat pembayaran."
                },
                {
                "code": "INDST30",
                "operator_code": "indosat",
                "type_code": "mobile",
                "name": "Indosat 30.000",
                "description": "",
                "sell_price": 24650,
                "amount": 0,
                "state": "enabled",
                "state_desc": "",
                "order": 3,
                "fee": 0,
                "image": "",
                "inquiry_required": false,
                "inquiry_uri": "https://secure.payfazz.com/order/inquiry/plan_10",
                "inquiry_params": [],
                "payment_methods": [],
                "disclaimer": "Harga tertera dapat berubah sewaktu-waktu sesuai kebijakan operator. Cek kembali harga akhir saat pembayaran."
                },
                {
                "code": "INDST50",
                "operator_code": "indosat",
                "type_code": "mobile",
                "name": "Indosat 50.000",
                "description": "",
                "sell_price": 49750,
                "amount": 0,
                "state": "disabled",
                "state_desc": "",
                "order": 4,
                "fee": 0,
                "image": "",
                "inquiry_required": false,
                "inquiry_uri": "https://secure.payfazz.com/order/inquiry/plan_10",
                "inquiry_params": [],
                "payment_methods": [],
                "disclaimer": "Harga tertera dapat berubah sewaktu-waktu sesuai kebijakan operator. Cek kembali harga akhir saat pembayaran."
                },
                {
                "code": "INDST100",
                "operator_code": "indosat",
                "type_code": "mobile",
                "name": "Indosat 100.000",
                "description": "",
                "sell_price": 97250,
                "amount": 0,
                "state": "disabled",
                "state_desc": "",
                "order": 5,
                "fee": 0,
                "image": "",
                "inquiry_required": false,
                "inquiry_uri": "https://secure.payfazz.com/order/inquiry/plan_10",
                "inquiry_params": [],
                "payment_methods": [],
                "disclaimer": "Harga tertera dapat berubah sewaktu-waktu sesuai kebijakan operator. Cek kembali harga akhir saat pembayaran."
                }
            ],
            "disclaimer": ""
        }
    ],
    "disclaimer": ""
}