{
    "code": "indihome_postpaid",
    "type_code": "telephone_postpaid",
    "prefixes": "",
    "name": "INDIHOME (SPEEDY)",
    "state": "enabled",
    "state_desc": "string",
    "image": "https://d1mlw9qkqfqc3o.cloudfront.net/public/operator/indihome_transparent.png",
    "order": 0,
    "plans": [],
    "disclaimer": ""
}