{
    "code": "xl_postpaid",
    "type_code": "mobile_postpaid",
    "prefixes": "0817,0818,0819,0877,0878",
    "name": "XL",
    "state": "enabled",
    "state_desc": "string",
    "image": "https://d1mlw9qkqfqc3o.cloudfront.net/public/operator/xlprio@200.png",
    "order": 0,
    "plans": [],
    "disclaimer": ""
}